{
  "prepare_queue": {
    "installed": [],
    "uninstalled": []
  },
  "config_munge": {
    "files": {}
  },
  "installed_plugins": {
    "cordova-plugin-device": {
      "PACKAGE_NAME": "com.anilnikam.demo"
    },
    "cordova-plugin-ionic-webview": {
      "PACKAGE_NAME": "com.anilnikam.demo"
    },
    "cordova-plugin-splashscreen": {
      "PACKAGE_NAME": "com.anilnikam.demo"
    },
    "cordova-plugin-whitelist": {
      "PACKAGE_NAME": "com.anilnikam.demo"
    },
    "ionic-plugin-keyboard": {
      "PACKAGE_NAME": "com.anilnikam.demo"
    },
    "phonegap-plugin-push": {
      "PACKAGE_NAME": "com.anilnikam.demo"
    }
  },
  "dependent_plugins": {}
}